{
  "Method": "TCP",
  "TCP": {
    "indicator": "1280",
    "ipaddress": "192.168.1.222",
    "tcpport": "10001"
  },
  "RS232": {
    "comport": "COM1",
    "baudrate": "9600",
    "databits": "8",
    "parity": "None",
    "stopbits": "One"
  }
}