RFIDTag	RegoNo	TareWgt	TareDate	JobNo
BIN0140D0A	Testing1	250	1/01/2001 12:00:00 AM	1
BIN0130D0A	Testing2	250	1/01/2001 12:00:00 AM	1
BIN0150D0A	Testing3	250	1/01/2001 12:00:00 AM	1
BIN0140D0A	Testing1	250	1/01/2001 12:00:00 AM	1
BIN0130D0A	Testing2	250	1/01/2001 12:00:00 AM	1
BIN0150D0A	Testing3	250	1/01/2001 12:00:00 AM	1
BIN0140D0A	Testing1	250	1/01/2001 12:00:00 AM	1
BIN0130D0A	Testing2	250	1/01/2001 12:00:00 AM	1
BIN0150D0A	Testing3	250	1/01/2001 12:00:00 AM	1
BIN0140D0A	Testing1	250	1/01/2001 12:00:00 AM	1
BIN0130D0A	Testing2	250	1/01/2001 12:00:00 AM	1
BINO15ODOA	Testing3	250	1/01/2001 12:00:00 AM	1
BIN0140D0A	Testing1	250	1/01/2001 12:00:00 AM	1
BIN0130D0A	Testing2	250	1/01/2001 12:00:00 AM	1
BINO15ODOA	Testing3	250	1/01/2001 12:00:00 AM	1
BIN0150D0A	Testing1	250	1/01/2001 12:00:00 AM	1
